1 10 20
100 200 125
201 210 89
900 1000 174
4185 8329 262
4117 1028 238
4199 7496 262
3029 2121 217
2750 9651 262
8946 823 262
5136 8374 262
7978 4343 262
3227 9093 262
4280 4790 215
7131 5180 262
5458 5970 236
6003 7721 262
3965 5790 236
6939 6174 244
251 5946 238
7283 7328 195
5938 3378 238
2879 5851 238
9886 6609 260
4390 8607 262
5592 5484 236
4106 478 238
2672 9313 262
3030 8059 262
3276 7665 262
806 4460 238
8484 7510 252
7545 4231 262
661 3316 217
2842 8744 262
5314 8565 262
6442 2725 262
3801 677 238
5732 8716 262
8984 2777 262
6255 9319 260
413 6588 262
5024 8378 262
8719 9494 260
974 9239 262
9460 6241 260
2283 4996 238
6458 4534 262
7998 9584 260
4546 6238 262
4804 6848 262
3411 4669 238
3767 3367 238
6176 477 262
1309 1678 180
6035 2913 238
6938 4022 262
4220 6123 236
807 4672 238
2961 196 217
9985 8876 260
9839 7825 260
3880 9088 262
8674 1666 262
3714 2605 238
6993 8236 252
8171 53 262
3322 522 217
9661 1907 262
3432 4146 238
4502 6092 236
3180 9974 262
9022 5686 262
3905 9763 262
1429 8637 262
9248 733 262
3864 258 238
1418 9840 262
1620 9719 262
6825 8883 257
3006 7943 262
8011 16 262
4734 5341 210
6615 6715 182
537 5808 238
2586 4917 238
4188 8165 262
8122 407 262
5267 1092 238
1223 6328 262
6610 1999 262
9889 2197 262
3219 3646 194
4494 6569 262
6549 1332 262
4586 9797 262
878659 74226 525
245306 258218 363
908321 266275 525
537566 680020 509
906126 198480 525
65635 646844 509
557459 514249 452
253753 272876 407
196484 443965 449
975889 12951 525
193311 211061 373
118693 649814 509
211201 506514 449
99246 470034 449
84011 579064 470
701970 708508 504
332658 430579 449
278284 325457 389
163755 153484 383
758631 163914 509
320940 283314 389
235212 884036 525
591669 981243 525
473087 181145 449
606999 221425 470
177804 846070 525
577887 927539 525
223641 267134 443
447782 988095 525
45892 293452 443
632633 541966 509
