.........................
----------------------------------------------------------------------
Ran 25 tests in 5.151s

OK
Name             Stmts   Miss Branch BrPart  Cover   Missing
------------------------------------------------------------
Collatz.py          46      3     14      1    93%   95-96, 102
TestCollatz.py      96      0      0      0   100%
------------------------------------------------------------
TOTAL              142      3     14      1    97%