.......................
----------------------------------------------------------------------
Ran 23 tests in 0.140s

OK
Name             Stmts   Miss Branch BrPart  Cover   Missing
------------------------------------------------------------
Collatz.py          42      0     20      0   100%
TestCollatz.py      97      0      0      0   100%
------------------------------------------------------------
TOTAL              139      0     20      0   100%
