.............
----------------------------------------------------------------------
Ran 13 tests in 0.012s

OK
Name             Stmts   Miss Branch BrPart  Cover   Missing
------------------------------------------------------------
Collatz.py          33      0     16      0   100%
TestCollatz.py      60      0      0      0   100%
------------------------------------------------------------
TOTAL               93      0     16      0   100%
