1 10 20
100 200 125
201 210 89
900 1000 174
10 1 20
5 175 125
387 3 144
476 300 144
9453 3652 262
1345 89 182
239847 239846 275
101010 1 351
50 48 25
23458 23 279
10 9 20
576 230 144
2 2 2
10 10 7
15 15 18
587 587 119
1122 1122 45
2121 2121 108
7 7 17
2 1 2
87567 87567 103
13 13 10
12 12 10
956739 956006 352
826611 825983 313
756134 756776 362
478642 479101 338
815892 815933 269
719220 719135 274
929349 929040 339
948351 948681 326
491808 491202 320
504516 507852 382
604712 604712 67
436809 436182 325
630804 630542 310
876534 876534 189
999998 999998 259
999997 999997 114
999675 999675 114
999323 999320 184
898746 897321 339
791090 790343 375
882775 882054 295
988415 988362 290
889199 888309 326
773708 773661 256
818139 817914 282
160 152 86
239 146 128
127 114 109
484 436 129
167 102 122
399 367 121
214 151 125
364 269 144
350 263 144
305 217 128
238 189 128
508 454 142
466 420 129
313 302 131
574 485 142
301 225 128
498 496 111
265 201 128
482 400 134
456 451 54
374 334 126
252 182 128
104 98 88
196 136 125
182 175 94
283 191 128
339 240 144
554 526 137
316 315 38
237 143 128
509 456 142
480 419 129
462 396 134
470 380 134
595 584 119
207 117 125
224 223 71
368 287 144
138 69 122
282 263 123
226 194 120
298 241 123
433 386 134
351 265 144
598 554 119
334 258 144
165 159 112
591 514 137
236 137 128
452 437 116
168424 168424 197
210409 210409 249
80890 80890 90
303423 303423 265
350493 350493 242
294145 294145 159
305196 305196 58
406641 406641 61
337915 337915 247
492798 492798 121
220261 220261 68
912812 912812 65
918569 918569 202
893111 893111 70
396952 396952 144
931830 931830 233
988357 988357 122
681178 681178 230
103349 103349 80
45929 45929 133
331018 331018 92
426493 426493 131
389262 389262 74
462762 462762 77
481966 481966 95
997176 997176 228
927980 927980 171
723343 723343 67
247441 247441 151
41515 41515 45
74186 74186 157
764786 764786 57
889425 889425 308
168185 168185 184
50764 50764 84
748753 748753 88
47697 47697 159
276070 276070 190
785007 785007 150
274556 274556 239
634646 634646 155
618143 618143 186
11035 11035 100
854131 854131 207
986962 986962 228
735896 735896 150
59131 59131 74
296845 296845 66
985014 985014 65
619300 619300 204
